<svg width="10" height="18" viewBox="0 0 10 18" fill="none" xmlns="http://www.w3.org/2000/svg">
<path d="M0.0412036 15.9709L1.45504 17.3847L9.94051 8.89964L8.5263 7.48542L0.0412036 15.9709Z" fill="#1F1F1F"/>
<path d="M0.0412036 15.9709L1.45504 17.3847L9.94051 8.89964L8.5263 7.48542L0.0412036 15.9709Z" stroke="#1F1F1F"/>
<path d="M9.94141 8.89941L8.52719 10.3136L0.0420235 1.82823L1.45613 0.414133L9.94141 8.89941Z" fill="#1F1F1F"/>
<path d="M9.94141 8.89941L8.52719 10.3136L0.0420235 1.82823L1.45613 0.414133L9.94141 8.89941Z" stroke="#1F1F1F"/>
</svg>
