<svg width="32" height="12" viewBox="0 0 32 12" fill="none" xmlns="http://www.w3.org/2000/svg">
<path fill-rule="evenodd" clip-rule="evenodd" d="M32 6C32 6.55228 31.5523 7 31 7L2 7L2 5L31 5C31.5523 5 32 5.44772 32 6Z" fill="#EFAE05"/>
<path fill-rule="evenodd" clip-rule="evenodd" d="M6.71591 11.2599C6.33025 11.646 5.70566 11.6482 5.31728 11.2649L3.1844e-05 6.01752L1.82306 4.95717L6.71591 9.85489C7.10351 10.2429 7.10351 10.8719 6.71591 11.2599Z" fill="#EFAE05"/>
<path fill-rule="evenodd" clip-rule="evenodd" d="M1.82337 7.00776L6.71827 2.10799C7.10473 1.72114 7.10473 1.09393 6.71827 0.707075C6.33213 0.320558 5.70621 0.320175 5.3196 0.706221L0.000248889 6.01789L1.82337 7.00776Z" fill="#EFAE05"/>
</svg>
