<svg width="30" height="28" viewBox="0 0 30 28" fill="none" xmlns="http://www.w3.org/2000/svg">
<path d="M15 3.23607L17.4167 10.6738L17.6412 11.3647H18.3677H26.1882L19.8613 15.9615L19.2735 16.3885L19.498 17.0795L21.9147 24.5172L15.5878 19.9205L15 19.4934L14.4122 19.9205L8.08533 24.5172L10.502 17.0795L10.7265 16.3885L10.1387 15.9615L3.81184 11.3647H11.6323H12.3588L12.5833 10.6738L15 3.23607Z" fill="white" stroke="#EFAE05" stroke-width="2"/>
</svg>
