<svg width="50" height="50" viewBox="0 0 50 50" fill="none" xmlns="http://www.w3.org/2000/svg">
<path d="M47.0703 14.2578H46.0938V12.3047C46.0938 11.3441 45.7481 10.4366 45.1172 9.7229V7.42188C45.1172 5.80635 43.803 4.49219 42.1875 4.49219C40.572 4.49219 39.2578 5.80635 39.2578 7.42188V9.72404C38.633 10.4321 38.2812 11.3495 38.2812 12.3047V39.2578C38.2812 44.1311 41.0725 47.1401 41.2109 47.3957V49.0234C41.2109 49.5628 41.6481 50 42.1875 50C42.7269 50 43.1641 49.5628 43.1641 49.0234V47.3957C43.3022 47.1405 46.0938 44.157 46.0938 39.2578V16.2109H47.0703C47.6089 16.2109 48.0469 16.6489 48.0469 17.1875V25C48.0469 25.5394 48.484 25.9766 49.0234 25.9766C49.5628 25.9766 50 25.5394 50 25V17.1875C50 15.572 48.6858 14.2578 47.0703 14.2578ZM40.2344 12.3047C40.2344 11.2324 41.1079 10.3516 42.1875 10.3516C43.2392 10.3516 44.1406 11.2022 44.1406 12.3047V14.2578H40.2344V12.3047ZM42.1875 6.44531C42.7261 6.44531 43.1641 6.88324 43.1641 7.42188V8.52356C42.8478 8.44154 42.5198 8.39844 42.1875 8.39844C41.8549 8.39844 41.5272 8.44154 41.2109 8.52318V7.42188C41.2109 6.88324 41.6489 6.44531 42.1875 6.44531ZM42.1875 45.4338C41.1129 43.903 40.4522 42.094 40.2798 40.2332H44.0952C43.9228 42.094 43.2621 43.903 42.1875 45.4338ZM44.1406 38.2812H40.2344V16.2109H44.1406V38.2812Z" fill="black"/>
<path fill-rule="evenodd" clip-rule="evenodd" d="M34.375 47.0703C34.375 48.686 33.0605 50 31.4453 50H2.92969C1.31445 50 0 48.686 0 47.0703V10.7422C0 9.12646 1.31445 7.8125 2.92969 7.8125H7.98047C8.38281 6.67578 9.46875 5.85938 10.7422 5.85938H12.4062C12.3398 5.53955 12.3047 5.21338 12.3047 4.88281C12.3047 2.19043 14.4941 0 17.1875 0C19.8809 0 22.0703 2.19043 22.0703 4.88281C22.0703 5.21338 22.0352 5.53955 21.9688 5.85938H23.6328C24.9062 5.85938 25.9922 6.67578 26.3945 7.8125H31.4453C33.0605 7.8125 34.375 9.12646 34.375 10.7422V47.0703ZM13.8242 7.8125H10.7422C10.3828 7.8125 10.0664 8.00781 9.89844 8.29785C9.81445 8.44238 9.76562 8.61035 9.76562 8.78906V11.7188H24.6094V8.78906C24.6094 8.25049 24.1719 7.8125 23.6328 7.8125H20.5508C20.2012 7.8125 19.8789 7.62598 19.7031 7.32275C19.5293 7.02002 19.5312 6.64648 19.707 6.34473C19.9785 5.87695 20.1172 5.38477 20.1172 4.88281C20.1172 3.26709 18.8027 1.95312 17.1875 1.95312C15.5723 1.95312 14.2578 3.26709 14.2578 4.88281C14.2578 5.38477 14.3965 5.87695 14.668 6.34473C14.8438 6.64648 14.8457 7.02002 14.6719 7.32275C14.4961 7.62549 14.1738 7.8125 13.8242 7.8125ZM1.95312 10.7422V47.0703C1.95312 47.6089 2.39062 48.0469 2.92969 48.0469H31.4453C31.9844 48.0469 32.4219 47.6089 32.4219 47.0703V10.7422C32.4219 10.2036 31.9844 9.76562 31.4453 9.76562H26.5625V11.7188H29.4922C30.0312 11.7188 30.4688 12.1558 30.4688 12.6953V45.1172C30.4688 45.6567 30.0312 46.0938 29.4922 46.0938H4.88281C4.34375 46.0938 3.90625 45.6567 3.90625 45.1172V12.6953C3.90625 12.1558 4.34375 11.7188 4.88281 11.7188H7.8125V9.76562H2.92969C2.39062 9.76562 1.95312 10.2036 1.95312 10.7422ZM5.85938 44.1406V13.6719H28.5156V44.1406H5.85938Z" fill="black"/>
<path d="M24.6328 17.1641H15.6484C15.109 17.1641 14.6719 17.6012 14.6719 18.1406C14.6719 18.68 15.109 19.1172 15.6484 19.1172H24.6328C25.1722 19.1172 25.6094 18.68 25.6094 18.1406C25.6094 17.6012 25.1722 17.1641 24.6328 17.1641Z" fill="black"/>
<path d="M24.6328 27.5156H9.74219C9.20279 27.5156 8.76562 27.9528 8.76562 28.4922C8.76562 29.0316 9.20279 29.4688 9.74219 29.4688H24.6328C25.1722 29.4688 25.6094 29.0316 25.6094 28.4922C25.6094 27.9528 25.1722 27.5156 24.6328 27.5156Z" fill="black"/>
<path d="M24.6328 31.4219H9.74219C9.20279 31.4219 8.76562 31.859 8.76562 32.3984C8.76562 32.9378 9.20279 33.375 9.74219 33.375H24.6328C25.1722 33.375 25.6094 32.9378 25.6094 32.3984C25.6094 31.859 25.1722 31.4219 24.6328 31.4219Z" fill="black"/>
<path d="M24.6328 23.6094H9.74219C9.20279 23.6094 8.76562 24.0465 8.76562 24.5859C8.76562 25.1253 9.20279 25.5625 9.74219 25.5625H24.6328C25.1722 25.5625 25.6094 25.1253 25.6094 24.5859C25.6094 24.0465 25.1722 23.6094 24.6328 23.6094Z" fill="black"/>
<path fill-rule="evenodd" clip-rule="evenodd" d="M10.5 40.4C10.9971 40.4 11.4 39.9971 11.4 39.5C11.4 39.0029 10.9971 38.6 10.5 38.6C10.0029 38.6 9.6 39.0029 9.6 39.5C9.6 39.9971 10.0029 40.4 10.5 40.4ZM10.5 42C11.8807 42 13 40.8807 13 39.5C13 38.1193 11.8807 37 10.5 37C9.11929 37 8 38.1193 8 39.5C8 40.8807 9.11929 42 10.5 42Z" fill="black"/>
</svg>
