<svg width="66" height="75" viewBox="0 0 66 75" fill="none" xmlns="http://www.w3.org/2000/svg">
<path d="M1.0791 59.5767H2.87549V62.7886L5.4082 59.5767H7.54736L4.28467 63.7407L7.86475 68.9141H5.75732L2.87549 64.769V68.9141H1.0791V59.5767ZM13.5396 59.3418C14.8599 59.3418 15.994 59.82 16.9419 60.7764C17.894 61.7327 18.3701 62.8986 18.3701 64.2739C18.3701 65.6366 17.9004 66.7897 16.9609 67.7334C16.0257 68.6771 14.8895 69.1489 13.5522 69.1489C12.1515 69.1489 10.9878 68.6644 10.061 67.6953C9.13428 66.7262 8.6709 65.5752 8.6709 64.2422C8.6709 63.3493 8.88672 62.5283 9.31836 61.7793C9.75 61.0303 10.3424 60.4378 11.0957 60.002C11.8532 59.5618 12.6678 59.3418 13.5396 59.3418ZM13.5205 61.0811C12.6572 61.0811 11.9315 61.3815 11.3433 61.9824C10.755 62.5833 10.4609 63.3472 10.4609 64.2739C10.4609 65.3065 10.8312 66.1232 11.5718 66.7241C12.1473 67.1938 12.8075 67.4287 13.5522 67.4287C14.3944 67.4287 15.1117 67.124 15.7041 66.5146C16.2965 65.9053 16.5928 65.1541 16.5928 64.2612C16.5928 63.3726 16.2944 62.6214 15.6978 62.0078C15.1011 61.39 14.3753 61.0811 13.5205 61.0811ZM20.1665 59.5767H22.0518C23.0843 59.5767 23.8185 59.6698 24.2544 59.856C24.6945 60.0379 25.0479 60.3426 25.3145 60.77C25.5811 61.1974 25.7144 61.7031 25.7144 62.2871C25.7144 62.9007 25.5662 63.4149 25.27 63.8296C24.978 64.2401 24.5358 64.5511 23.9434 64.7627L26.1523 68.9141H24.21L22.1089 64.9595H21.9438V68.9141H20.1665V59.5767ZM21.9438 63.2266H22.5024C23.0695 63.2266 23.4588 63.1525 23.6704 63.0044C23.8862 62.8563 23.9941 62.6108 23.9941 62.2681C23.9941 62.0649 23.9412 61.8893 23.8354 61.7412C23.7297 61.5889 23.5879 61.481 23.4102 61.4175C23.2324 61.3498 22.9066 61.3159 22.4326 61.3159H21.9438V63.2266ZM30.4307 59.5767H32.2334L35.8262 68.9141H33.979L33.249 66.9907H29.4404L28.6787 68.9141H26.8315L30.4307 59.5767ZM31.3447 62.0522L30.1006 65.2578H32.5825L31.3447 62.0522ZM37.21 68.9141V59.5767H38.6763C39.5269 59.5767 40.1489 59.6317 40.5425 59.7417C41.1011 59.8898 41.5454 60.1649 41.8755 60.5669C42.2056 60.9689 42.3706 61.4429 42.3706 61.9888C42.3706 62.3442 42.2944 62.668 42.1421 62.96C41.994 63.2477 41.7507 63.5186 41.4121 63.7725C41.9792 64.0391 42.3939 64.3734 42.6562 64.7754C42.9186 65.1732 43.0498 65.645 43.0498 66.1909C43.0498 66.7157 42.9144 67.1938 42.6436 67.6255C42.3727 68.0571 42.0236 68.3809 41.5962 68.5967C41.1688 68.8083 40.5785 68.9141 39.8252 68.9141H37.21ZM38.9873 61.2715V63.2393H39.3745C39.8062 63.2393 40.1257 63.1483 40.333 62.9663C40.5446 62.7843 40.6504 62.5368 40.6504 62.2236C40.6504 61.9316 40.5509 61.701 40.3521 61.5317C40.1532 61.3582 39.8506 61.2715 39.4443 61.2715H38.9873ZM38.9873 64.8262V67.2192H39.4316C40.168 67.2192 40.6631 67.1261 40.917 66.9399C41.1751 66.7537 41.3042 66.4829 41.3042 66.1274C41.3042 65.7254 41.154 65.408 40.8535 65.1753C40.5531 64.9425 40.0537 64.8262 39.3555 64.8262H38.9873ZM44.751 59.5767H46.5283V67.2192H49.1182V68.9141H44.751V59.5767ZM50.3496 59.5767H52.1143V68.9141H50.3496V59.5767Z" fill="white"/>
<path d="M44 17.6326C44 19.5849 43.0263 22.601 41.2999 26.268C39.6133 29.8503 37.347 33.7739 35.0547 37.4361C32.7668 41.0915 30.4756 44.4507 28.7546 46.8983C28.2908 47.5579 27.8688 48.1507 27.5 48.6645C27.1312 48.1507 26.7092 47.5579 26.2454 46.8983C24.5244 44.4507 22.2332 41.0915 19.9453 37.4361C17.653 33.7739 15.3867 29.8503 13.7001 26.268C11.9737 22.601 11 19.5849 11 17.6326C11 9.08838 18.2957 2 27.5 2C36.7043 2 44 9.08838 44 17.6326Z" fill="white" stroke="white" stroke-width="4"/>
</svg>
