<svg width="46" height="28" viewBox="0 0 46 28" fill="none" xmlns="http://www.w3.org/2000/svg">
<path d="M45.9745 11.6504C45.8681 11.2437 45.4528 11.003 45.0532 11.1101L39.3443 12.6449C39.2071 12.6818 39.083 12.7574 38.9859 12.8628L35.6053 16.543C35.545 16.4958 35.4917 16.4418 35.4269 16.3994L23.5767 8.6352C22.956 8.22751 22.1627 8.18959 21.5057 8.53706L15.9973 11.4481C15.8101 11.5478 15.5796 11.5274 15.4114 11.3988C15.2938 11.3086 15.2183 11.1775 15.1987 11.0295C15.1791 10.8818 15.2173 10.7351 15.3075 10.6169L17.8997 7.20792C18.3394 6.62898 18.9729 6.2369 19.6828 6.10332L22.7241 5.53206C24.4018 5.21706 26.1012 5.23664 27.7721 5.59129L31.006 6.27804C31.4046 6.36256 31.8174 6.32637 32.1969 6.17147C32.2533 6.14818 32.3072 6.11844 32.3568 6.08225L38.7854 1.3786C39.1222 1.13201 39.1977 0.655916 38.9536 0.315391C38.7099 -0.0253811 38.2392 -0.10221 37.9019 0.144881L31.564 4.78236C31.4831 4.80343 31.3978 4.80516 31.3154 4.78781L28.0819 4.10131C26.2169 3.70552 24.3214 3.68371 22.4485 4.03514L19.4073 4.6064C18.5745 4.76297 17.8132 5.15675 17.2017 5.73259L14.3696 5.27778C14.3318 5.27159 14.2951 5.26143 14.2593 5.24755L8.06841 0.170408C7.74482 -0.0947748 7.27121 -0.0447122 7.0089 0.282182C6.74709 0.60858 6.79661 1.08814 7.11922 1.35307L13.3821 6.4892C13.4219 6.52142 13.4645 6.54967 13.5096 6.57346C13.7062 6.67681 13.9166 6.74695 14.1342 6.78164L16.0855 7.09512L14.1132 9.68899C13.7768 10.1314 13.6322 10.6796 13.7057 11.2325C13.7793 11.7857 14.0622 12.2759 14.5029 12.6129C15.1339 13.0952 15.9939 13.1681 16.6955 12.7973L22.2034 9.88651C22.3784 9.79383 22.5912 9.80374 22.7574 9.91279L34.6082 17.6772C34.87 17.8492 35.0499 18.1139 35.1136 18.4232C35.1779 18.7325 35.1181 19.0477 34.946 19.3114C34.6018 19.8378 33.9139 19.9969 33.3785 19.6728L26.9695 15.7956C26.6135 15.58 26.1502 15.6965 25.9364 16.0578C25.7227 16.4187 25.8389 16.8861 26.1958 17.1022L31.3227 20.2037C31.3229 20.2038 31.3231 20.204 31.3232 20.2041L31.941 20.5779C32.115 20.6834 32.2361 20.8515 32.2813 21.0517C32.3264 21.252 32.2901 21.4562 32.1783 21.6282C31.791 22.223 31.005 22.4217 30.3858 22.0807L25.3756 19.3203C25.0118 19.1196 24.5533 19.2554 24.3538 19.6247C24.1547 19.994 24.2896 20.4564 24.6548 20.6577L28.2721 22.6506L29.163 23.2004C29.3302 23.3035 29.443 23.4676 29.4802 23.6619C29.5175 23.8567 29.4734 24.0515 29.3562 24.2106C29.3459 24.2255 29.3356 24.2403 29.3258 24.2552C28.9836 24.7975 28.2972 24.9858 27.7294 24.6949L23.8503 22.7038C23.4806 22.5139 23.0261 22.6631 22.8378 23.0384C22.6496 23.4131 22.7976 23.8716 23.1688 24.0619L26.3958 25.7182C25.737 26.1332 24.9509 26.3081 24.1533 26.1854L21.238 25.7346L21.4449 25.4344C22.098 24.4872 21.9259 23.1747 21.0561 22.4317C21.0483 22.4242 21.0399 22.4178 21.0321 22.4108C20.7571 22.1827 20.4309 22.0364 20.0887 21.9612C20.3581 21.0272 20.0739 19.9797 19.2926 19.3407C18.879 19.0021 18.3657 18.818 17.8408 18.7982C17.8502 18.5969 17.8438 18.3941 17.8036 18.1912C17.6731 17.5334 17.2956 16.9699 16.7396 16.6036C15.6431 15.8821 14.1537 16.1773 13.4045 17.2588C13.2118 16.966 12.9597 16.7114 12.6462 16.5158C11.6904 15.9185 10.4731 16.0762 9.69292 16.8414L6.94566 13.1792C6.85152 13.0538 6.7216 12.9612 6.57304 12.9136L0.98082 11.1202C0.583687 10.9919 0.16106 11.2154 0.0355462 11.6157C-0.0904577 12.0164 0.129191 12.4444 0.525834 12.5716L5.89007 14.2918L8.75773 18.1146L7.95957 19.2683C7.20257 20.3642 7.46242 21.8864 8.53811 22.6611L8.58076 22.6919C8.98531 22.9829 9.45642 23.1356 9.94156 23.1431C9.94137 23.924 10.3018 24.695 10.9773 25.1757C11.3945 25.4726 11.8804 25.6272 12.3795 25.6272C12.5266 25.6272 12.6747 25.6138 12.8227 25.5866C12.9589 25.5615 13.0886 25.5194 13.2162 25.473C13.4248 26.0215 13.8109 26.4872 14.3294 26.7693C14.6976 26.97 15.0962 27.0662 15.4894 27.0662C15.8616 27.0662 16.2282 26.9776 16.5623 26.8125C16.8028 27.2662 17.1876 27.6261 17.6692 27.827C17.9487 27.9435 18.2389 28 18.5248 28C19.196 28 19.8406 27.6872 20.2712 27.1251L23.9258 27.6902C24.1734 27.7289 24.4205 27.7477 24.6661 27.7477C25.9269 27.7477 27.1285 27.2452 28.033 26.3402C28.1193 26.3485 28.2057 26.3554 28.2918 26.3554C29.19 26.3554 30.0593 25.9068 30.5814 25.0969C30.8598 24.7084 30.999 24.2397 30.9931 23.7654C31.0044 23.7655 31.0158 23.7675 31.0271 23.7675C31.9685 23.7675 32.8917 23.303 33.4364 22.4654C33.6568 22.1267 33.7702 21.7443 33.7927 21.3521C33.8539 21.3565 33.915 21.3645 33.9762 21.3645C34.8435 21.3645 35.6907 20.9357 36.2031 20.1501C36.5982 19.5454 36.735 18.8217 36.5879 18.1119C36.5665 18.008 36.5277 17.9115 36.4951 17.8123L39.942 14.06L45.4406 12.5817C45.8426 12.4737 46.0814 12.0566 45.9745 11.6504ZM9.41278 21.4215C9.00633 21.129 8.90828 20.5541 9.19411 20.1407L10.6282 18.0683C10.8032 17.815 11.0827 17.6767 11.373 17.6767C11.5416 17.6767 11.7147 17.7238 11.8721 17.8219C12.0863 17.9558 12.2329 18.1659 12.2854 18.4138C12.3336 18.6417 12.2926 18.8714 12.1769 19.0706L10.6739 21.2955C10.5377 21.4583 10.3543 21.5699 10.1438 21.6079C9.9016 21.6515 9.65547 21.596 9.45495 21.4517L9.41278 21.4215ZM12.5536 24.0882C12.3035 24.1338 12.052 24.0783 11.8412 23.9286C11.4235 23.6312 11.3175 23.0418 11.6058 22.615L11.9143 22.1585C11.9343 22.1313 11.9594 22.1094 11.9785 22.0812C12.4236 21.424 12.9497 20.6418 13.3949 19.9781C13.4062 19.9612 13.4124 19.9422 13.4233 19.9251L14.6289 18.1406C14.8094 17.873 15.107 17.7282 15.409 17.7282C15.5845 17.7282 15.7615 17.7773 15.9179 17.8799C16.1317 18.0207 16.2768 18.2373 16.3268 18.4901C16.3768 18.7429 16.3253 18.9991 16.1817 19.2123L15.7693 19.8236C15.7599 19.8369 15.7472 19.8471 15.738 19.8606L13.4729 23.189C13.4323 23.2486 13.4066 23.3153 13.3716 23.3778L13.1615 23.6892C13.0188 23.9008 12.8026 24.0426 12.5536 24.0882ZM15.0423 25.4285C14.804 25.2986 14.6373 25.0805 14.574 24.8143C14.5267 24.6171 14.5424 24.4172 14.6162 24.2349L17.0098 20.6867C17.1598 20.4889 17.3727 20.3579 17.6187 20.3221C17.6648 20.3156 17.7109 20.3122 17.7565 20.3122C17.9703 20.3122 18.1752 20.3855 18.3448 20.5243C18.7238 20.8341 18.8042 21.3952 18.5277 21.8017L17.846 22.804C17.8303 22.825 17.8101 22.8417 17.7952 22.8634L16.6921 24.4639C16.6545 24.5185 16.6319 24.5796 16.5995 24.6366L16.2636 25.1306C15.9915 25.5311 15.4664 25.6595 15.0423 25.4285ZM18.2438 26.4193C18.0418 26.335 17.8903 26.165 17.8291 25.9529C17.7838 25.7977 17.7923 25.6351 17.8485 25.4879L19.0846 23.6705C19.198 23.5403 19.3488 23.4538 19.522 23.4294C19.5558 23.425 19.5892 23.4225 19.623 23.4225C19.7819 23.4225 19.9348 23.4755 20.0623 23.5762C20.0667 23.5806 20.0716 23.5846 20.0765 23.5885C20.3638 23.827 20.4222 24.2552 20.2094 24.564L19.1063 26.164C18.9126 26.4451 18.5576 26.5507 18.2438 26.4193Z" fill="#1F1F1F"/>
</svg>
