<svg width="50" height="40" viewBox="0 0 50 40" fill="none" xmlns="http://www.w3.org/2000/svg">
<path d="M9.23622 8.36197H4.57951C3.91728 8.36197 3.37859 8.90596 3.37859 9.57855V33.4212H1.20092C0.537554 33.4212 0 33.9663 0 34.6378V38.7834C0 39.4566 0.536983 40 1.20092 40H36.4119C36.4622 40 36.5091 39.9907 36.5571 39.9855C36.6544 39.989 36.7493 40 36.8476 40C42.1877 40 46.5962 35.9094 47.1938 30.6607H48.7991C49.4624 30.6607 50 30.1156 50 29.4441C50 22.0948 44.0995 16.1173 36.8482 16.1173C36.1837 16.1173 35.6473 16.6625 35.6473 17.3339V18.9624C33.075 19.2625 30.7921 20.5185 29.1377 22.3648V1.21658C29.1377 0.543987 28.6008 0 27.9368 0H23.2961C22.6339 0 22.0952 0.543987 22.0952 1.21658V33.4212H19.7912V4.99667C19.7912 4.32466 19.2519 3.78009 18.5891 3.78009H13.9335C13.2713 3.78009 12.7326 4.32408 12.7326 4.99667V33.4212H10.436V9.57855C10.4366 8.90654 9.89844 8.36197 9.23622 8.36197ZM5.78157 10.7946H8.03415V33.4212H5.78157V10.7946ZM2.40184 37.5674V35.8544H4.58008H9.23679H13.9347H18.5902H28.2582C28.3611 35.8544 28.4606 35.8376 28.5556 35.8126C29.0405 36.4574 29.5867 37.0507 30.202 37.5674H2.40184ZM38.0486 18.6194C43.0175 19.1808 46.976 23.1909 47.5312 28.227H46.0678H38.0486V20.1025V18.6194ZM35.6467 21.4095V29.4441C35.6467 30.115 36.1831 30.6607 36.8476 30.6607H44.7766C44.1956 34.5642 40.8604 37.5674 36.8476 37.5674C32.4248 37.5674 28.8272 33.9229 28.8272 29.4447C28.8272 28.7327 28.9233 28.0451 29.0931 27.3864C29.1023 27.3522 29.1109 27.3186 29.1177 27.2821C29.9509 24.2279 32.5015 21.8903 35.6467 21.4095ZM24.4965 2.43316H26.7359V26.9328C26.5403 27.7398 26.4254 28.578 26.4254 29.4447C26.4254 30.8513 26.7033 32.193 27.1997 33.4218H24.4965V2.43316ZM15.1344 6.21441H17.3882V33.4212H15.1344V6.21441Z" fill="black"/>
</svg>
