<svg width="51" height="50" viewBox="0 0 51 50" fill="none" xmlns="http://www.w3.org/2000/svg">
<path d="M6.50052 33.4915H9.72435V40.8637C9.72435 41.601 10.3057 42.1802 11.0456 42.1802C11.4155 42.1802 11.7326 42.0222 11.9969 41.8116L20.2943 33.4915H21.8798V36.967C21.8798 40.0739 24.4166 42.6015 27.5347 42.6015H34.0352L41.0643 49.6051C41.5927 50.1316 42.4383 50.1316 42.914 49.6051C43.1782 49.3418 43.2839 49.0258 43.2839 48.6572V42.6541H45.2922C48.4104 42.6541 50.9471 40.1265 51 36.967V20.4849C51 17.378 48.4632 14.8504 45.2922 14.7978H39.9016V6.42505C39.9016 2.89693 36.9948 0.000706906 33.4539 0.000706906H6.50052C2.90674 -0.0519516 0 2.84427 0 6.37239V27.0672C0 30.648 2.90674 33.5442 6.50052 33.4915ZM45.3451 17.4833C47.0363 17.4833 48.4104 18.8525 48.4104 20.5375V36.967C48.4104 38.6521 47.0363 40.0212 45.3451 40.0212H42.0155C41.2756 40.0212 40.6943 40.6005 40.6943 41.3377V45.5504L35.5679 40.4425C35.3036 40.1792 34.9865 40.0739 34.6166 40.0739H27.5347C25.8435 40.0739 24.4694 38.7574 24.4694 37.0723V37.0197V33.5442H33.4539C36.9948 33.5442 39.9016 30.648 39.9016 27.1199V17.4833H45.3451ZM2.64249 6.42505C2.64249 4.31871 4.33368 2.63363 6.44767 2.63363H33.401C35.515 2.63363 37.2062 4.31871 37.2062 6.42505V27.1199C37.2062 29.2262 35.515 30.9113 33.401 30.9113H19.713C19.343 30.9113 19.0259 31.0693 18.7617 31.2799L12.3668 37.7042V32.1751C12.3668 31.4379 11.7855 30.8586 11.0456 30.8586H6.50052C4.38653 30.8586 2.69534 29.1735 2.69534 27.0672L2.64249 6.42505Z" fill="black"/>
<path d="M13.5289 25.2244C14.1103 25.6456 14.9559 25.5403 15.3787 24.9611L26.3714 10.6906C26.7942 10.1114 26.6885 9.26881 26.1072 8.84755C25.5258 8.42628 24.6802 8.53159 24.2574 9.11084L13.3175 23.434C12.8947 23.9605 13.0004 24.8031 13.5289 25.2244Z" fill="black"/>
<path d="M21.2988 21.3802V22.2228C21.2988 24.5398 23.1486 26.3828 25.474 26.3828C27.7993 26.3828 29.6491 24.5398 29.6491 22.2228V21.3802C29.6491 19.0633 27.7993 17.2202 25.474 17.2202C23.1486 17.2202 21.2988 19.0633 21.2988 21.3802C21.2988 21.3276 21.2988 21.3276 21.2988 21.3802ZM27.0066 21.3802V22.2228C27.0066 23.0653 26.3196 23.7499 25.474 23.7499C24.6284 23.7499 23.9413 23.0653 23.9413 22.2228V21.3802C23.9413 20.5377 24.6284 19.8531 25.474 19.8531C26.3196 19.8531 27.0066 20.485 27.0066 21.3802C27.0066 21.3276 27.0066 21.3276 27.0066 21.3802Z" fill="black"/>
<path d="M14.2161 16.9043C16.5415 16.9043 18.3913 15.0612 18.3913 12.7443V11.9017C18.3913 9.58475 16.5415 7.7417 14.2161 7.7417C11.8908 7.7417 10.041 9.58475 10.041 11.9017V12.7443C10.041 15.0612 11.8908 16.9043 14.2161 16.9043ZM12.6835 11.9017C12.6835 11.0592 13.3705 10.3746 14.2161 10.3746C15.0617 10.3746 15.7488 11.0592 15.7488 11.9017V12.7443C15.7488 13.5868 15.0617 14.2714 14.2161 14.2714C13.3705 14.2714 12.6835 13.5868 12.6835 12.7443V11.9017Z" fill="black"/>
</svg>
