<svg width="135" height="58" viewBox="0 0 135 58" fill="none" xmlns="http://www.w3.org/2000/svg">
<path d="M129.664 12.2153V14.6284L123.143 19.9595V12.2153H117.826V24.3179V29.2563H123.143V26.8619L129.664 21.5121V29.2563H135V12.2153H129.664Z" fill="white"/>
<path d="M99.3364 17.6026H96.613V12.2153H114.157V29.2376H108.822V17.6026H104.487C104.487 17.6026 104.487 18.5005 104.487 20.7639C104.487 25.6086 100.615 29.5368 95.8164 29.5555V24.3741C97.7616 24.3554 99.3364 22.7467 99.3364 20.7639" fill="white"/>
<path d="M15.7842 16.7791L13.5055 12.2149L5.20584 16.5359V4.4707L0 7.01468V29.2558H5.20584V24.8787L13.7279 29.2558L16.0066 24.6916L8.28117 20.7073L15.7842 16.7791Z" fill="white"/>
<path d="M46.2024 24.355C45.1093 24.355 44.146 23.8686 43.479 23.083V18.3692C44.3868 17.7332 45.1093 17.0972 46.2024 17.0972C48.1847 17.0972 49.7965 18.7246 49.7965 20.7261C49.7965 22.7276 48.1847 24.355 46.2024 24.355ZM46.2024 11.897C44.9797 11.897 43.7384 12.1401 42.6639 12.7387C41.4968 13.3747 38.125 15.5633 38.125 15.5633V37.0001L43.479 34.2503V29.1437C44.2942 29.4055 45.1464 29.5739 46.0542 29.5739C50.871 29.6487 54.8911 25.7392 54.9467 20.8757C55.0393 15.9187 51.0933 11.897 46.2024 11.897Z" fill="white"/>
<path d="M84.9982 24.3549C83.0159 24.3549 81.4227 22.7275 81.4227 20.7447C81.4227 18.7431 83.0345 17.1345 84.9982 17.1345C86.9805 17.1345 88.5738 18.7619 88.5738 20.7447C88.5923 22.7462 86.9805 24.3549 84.9982 24.3549ZM90.2411 13.6739L91.2415 11.6724L84.5166 8.23052L91.2415 4.80737L88.8331 0L76.291 6.39736V10.0637L81.4227 12.6825C78.3844 14.0667 76.2539 17.1532 76.2539 20.726C76.2539 25.6082 80.1629 29.5551 84.9982 29.5551C89.8335 29.5551 93.7426 25.6082 93.7426 20.726C93.7426 17.8453 92.3716 15.2826 90.2411 13.6739Z" fill="white"/>
<path d="M26.6418 24.355C24.6595 24.355 23.0477 22.7276 23.0477 20.7261C23.0477 18.7246 24.6595 17.0972 26.6418 17.0972C28.6241 17.0972 30.2358 18.7246 30.2358 20.7261C30.2358 22.7463 28.6426 24.355 26.6418 24.355ZM26.6418 11.897C21.8064 11.897 17.8789 15.8626 17.8789 20.7448C17.8789 25.627 21.8064 29.5926 26.6418 29.5926C31.4771 29.5926 35.4046 25.627 35.4046 20.7448C35.4046 15.8439 31.4956 11.897 26.6418 11.897Z" fill="white"/>
<path d="M71.9376 23.8312V20.7635C71.9376 15.8626 68.0101 11.897 63.1563 11.897C61.4889 11.897 59.2287 12.3646 57.7837 13.1128L60.0809 17.7145C61.0072 17.2842 62.0632 17.1346 63.1563 17.1346C64.3975 17.1346 65.4905 17.7706 66.139 18.7246H64.5087C60.9517 18.7246 56.6721 20.4455 56.8574 24.7104C57.0612 29.5178 62.4337 30.4157 66.0649 28.9379C66.8059 28.6386 68.0657 27.8717 69.2328 27.1234V29.2559H74.6424V23.8499H71.9376V23.8312ZM66.7688 24.7291C66.4354 24.9349 66.0834 25.1032 65.7129 25.2155C64.6939 25.5522 62.6746 25.7392 62.4337 24.2615C62.1744 22.6902 64.1567 22.4096 65.2312 22.4096H66.7688V24.7291Z" fill="white"/>
<path opacity="0.5" d="M0.462891 48.7715C0.462891 48.1504 0.585938 47.5918 0.832031 47.0957C1.07812 46.5957 1.42383 46.2129 1.86914 45.9473C2.31445 45.6777 2.82617 45.543 3.4043 45.543C4.25977 45.543 4.95312 45.8184 5.48438 46.3691C6.01953 46.9199 6.30859 47.6504 6.35156 48.5605L6.35742 48.8945C6.35742 49.5195 6.23633 50.0781 5.99414 50.5703C5.75586 51.0625 5.41211 51.4434 4.96289 51.7129C4.51758 51.9824 4.00195 52.1172 3.41602 52.1172C2.52148 52.1172 1.80469 51.8203 1.26562 51.2266C0.730469 50.6289 0.462891 49.834 0.462891 48.8418V48.7715ZM1.88672 48.8945C1.88672 49.5469 2.02148 50.0586 2.29102 50.4297C2.56055 50.7969 2.93555 50.9805 3.41602 50.9805C3.89648 50.9805 4.26953 50.793 4.53516 50.418C4.80469 50.043 4.93945 49.4941 4.93945 48.7715C4.93945 48.1309 4.80078 47.623 4.52344 47.248C4.25 46.873 3.87695 46.6855 3.4043 46.6855C2.93945 46.6855 2.57031 46.8711 2.29688 47.2422C2.02344 47.6094 1.88672 48.1602 1.88672 48.8945ZM12.375 46.791H10.3184V52H8.89453V46.791H6.86133V45.6602H12.375V46.791ZM18.375 43.4688L20.8359 50.0078L23.291 43.4688H25.207V52H23.7305V49.1875L23.877 45.4258L21.3574 52H20.2969L17.7832 45.4316L17.9297 49.1875V52H16.4531V43.4688H18.375ZM30.6152 52C30.5527 51.8789 30.498 51.6816 30.4512 51.4082C29.998 51.8809 29.4434 52.1172 28.7871 52.1172C28.1504 52.1172 27.6309 51.9355 27.2285 51.5723C26.8262 51.209 26.625 50.7598 26.625 50.2246C26.625 49.5488 26.875 49.0312 27.375 48.6719C27.8789 48.3086 28.5977 48.127 29.5312 48.127H30.4043V47.7109C30.4043 47.3828 30.3125 47.1211 30.1289 46.9258C29.9453 46.7266 29.666 46.627 29.291 46.627C28.9668 46.627 28.7012 46.709 28.4941 46.873C28.2871 47.0332 28.1836 47.2383 28.1836 47.4883H26.7598C26.7598 47.1406 26.875 46.8164 27.1055 46.5156C27.3359 46.2109 27.6484 45.9727 28.043 45.8008C28.4414 45.6289 28.8848 45.543 29.373 45.543C30.1152 45.543 30.707 45.7305 31.1484 46.1055C31.5898 46.4766 31.8164 47 31.8281 47.6758V50.5352C31.8281 51.1055 31.9082 51.5605 32.0684 51.9004V52H30.6152ZM29.0508 50.9746C29.332 50.9746 29.5957 50.9062 29.8418 50.7695C30.0918 50.6328 30.2793 50.4492 30.4043 50.2188V49.0234H29.6367C29.1094 49.0234 28.7129 49.1152 28.4473 49.2988C28.1816 49.4824 28.0488 49.7422 28.0488 50.0781C28.0488 50.3516 28.1387 50.5703 28.3184 50.7344C28.502 50.8945 28.7461 50.9746 29.0508 50.9746ZM36.873 50.2773C36.873 50.0234 36.7676 49.8301 36.5566 49.6973C36.3496 49.5645 36.0039 49.4473 35.5195 49.3457C35.0352 49.2441 34.6309 49.1152 34.3066 48.959C33.5957 48.6152 33.2402 48.1172 33.2402 47.4648C33.2402 46.918 33.4707 46.4609 33.9316 46.0938C34.3926 45.7266 34.9785 45.543 35.6895 45.543C36.4473 45.543 37.0586 45.7305 37.5234 46.1055C37.9922 46.4805 38.2266 46.9668 38.2266 47.5645H36.8027C36.8027 47.291 36.7012 47.0645 36.498 46.8848C36.2949 46.7012 36.0254 46.6094 35.6895 46.6094C35.377 46.6094 35.1211 46.6816 34.9219 46.8262C34.7266 46.9707 34.6289 47.1641 34.6289 47.4062C34.6289 47.625 34.7207 47.7949 34.9043 47.916C35.0879 48.0371 35.459 48.1602 36.0176 48.2852C36.5762 48.4062 37.0137 48.5527 37.3301 48.7246C37.6504 48.8926 37.8867 49.0957 38.0391 49.334C38.1953 49.5723 38.2734 49.8613 38.2734 50.2012C38.2734 50.7715 38.0371 51.2344 37.5645 51.5898C37.0918 51.9414 36.4727 52.1172 35.707 52.1172C35.1875 52.1172 34.7246 52.0234 34.3184 51.8359C33.9121 51.6484 33.5957 51.3906 33.3691 51.0625C33.1426 50.7344 33.0293 50.3809 33.0293 50.002H34.4121C34.4316 50.3379 34.5586 50.5977 34.793 50.7812C35.0273 50.9609 35.3379 51.0508 35.7246 51.0508C36.0996 51.0508 36.3848 50.9805 36.5801 50.8398C36.7754 50.6953 36.873 50.5078 36.873 50.2773ZM41.3027 44.1191V45.6602H42.4219V46.7148H41.3027V50.2539C41.3027 50.4961 41.3496 50.6719 41.4434 50.7812C41.541 50.8867 41.7129 50.9395 41.959 50.9395C42.123 50.9395 42.2891 50.9199 42.457 50.8809V51.9824C42.1328 52.0723 41.8203 52.1172 41.5195 52.1172C40.4258 52.1172 39.8789 51.5137 39.8789 50.3066V46.7148H38.8359V45.6602H39.8789V44.1191H41.3027ZM46.3066 52.1172C45.4043 52.1172 44.6719 51.834 44.1094 51.2676C43.5508 50.6973 43.2715 49.9395 43.2715 48.9941V48.8184C43.2715 48.1855 43.3926 47.6211 43.6348 47.125C43.8809 46.625 44.2246 46.2363 44.666 45.959C45.1074 45.6816 45.5996 45.543 46.1426 45.543C47.0059 45.543 47.6719 45.8184 48.1406 46.3691C48.6133 46.9199 48.8496 47.6992 48.8496 48.707V49.2812H44.707C44.75 49.8047 44.9238 50.2188 45.2285 50.5234C45.5371 50.8281 45.9238 50.9805 46.3887 50.9805C47.041 50.9805 47.5723 50.7168 47.9824 50.1895L48.75 50.9219C48.4961 51.3008 48.1562 51.5957 47.7305 51.8066C47.3086 52.0137 46.834 52.1172 46.3066 52.1172ZM46.1367 46.6855C45.7461 46.6855 45.4297 46.8223 45.1875 47.0957C44.9492 47.3691 44.7969 47.75 44.7305 48.2383H47.4434V48.1328C47.4121 47.6562 47.2852 47.2969 47.0625 47.0547C46.8398 46.8086 46.5312 46.6855 46.1367 46.6855ZM53.2793 46.9609C53.0918 46.9297 52.8984 46.9141 52.6992 46.9141C52.0469 46.9141 51.6074 47.1641 51.3809 47.6641V52H49.957V45.6602H51.3164L51.3516 46.3691C51.6953 45.8184 52.1719 45.543 52.7812 45.543C52.9844 45.543 53.1523 45.5703 53.2852 45.625L53.2793 46.9609ZM65.1504 54.0977H63.7441V52H58.125V54.0977H56.6953L56.6484 50.8164H57.334C57.6738 50.4883 57.9453 50.0117 58.1484 49.3867C58.3516 48.7578 58.4824 48.0469 58.541 47.2539L58.7637 43.4688H64.1426V50.8164H65.2266L65.1504 54.0977ZM59.0098 50.8164H62.666V44.6641H60.1758L60.0352 47.0664C59.9297 48.6719 59.5879 49.9219 59.0098 50.8164ZM68.9941 52.1172C68.0918 52.1172 67.3594 51.834 66.7969 51.2676C66.2383 50.6973 65.959 49.9395 65.959 48.9941V48.8184C65.959 48.1855 66.0801 47.6211 66.3223 47.125C66.5684 46.625 66.9121 46.2363 67.3535 45.959C67.7949 45.6816 68.2871 45.543 68.8301 45.543C69.6934 45.543 70.3594 45.8184 70.8281 46.3691C71.3008 46.9199 71.5371 47.6992 71.5371 48.707V49.2812H67.3945C67.4375 49.8047 67.6113 50.2188 67.916 50.5234C68.2246 50.8281 68.6113 50.9805 69.0762 50.9805C69.7285 50.9805 70.2598 50.7168 70.6699 50.1895L71.4375 50.9219C71.1836 51.3008 70.8438 51.5957 70.418 51.8066C69.9961 52.0137 69.5215 52.1172 68.9941 52.1172ZM68.8242 46.6855C68.4336 46.6855 68.1172 46.8223 67.875 47.0957C67.6367 47.3691 67.4844 47.75 67.418 48.2383H70.1309V48.1328C70.0996 47.6562 69.9727 47.2969 69.75 47.0547C69.5273 46.8086 69.2188 46.6855 68.8242 46.6855ZM72.7559 52V45.6602H75.3281C76.1953 45.6602 76.8555 45.8125 77.3086 46.1172C77.7617 46.418 77.9883 46.8516 77.9883 47.418C77.9883 47.7109 77.8965 47.9746 77.7129 48.209C77.5332 48.4395 77.2656 48.6172 76.9102 48.7422C77.3242 48.8281 77.6523 49.002 77.8945 49.2637C78.1367 49.5254 78.2578 49.834 78.2578 50.1895C78.2578 50.7793 78.0391 51.2285 77.6016 51.5371C77.168 51.8457 76.543 52 75.7266 52H72.7559ZM74.1797 49.2988V50.875H75.7383C76.4688 50.875 76.834 50.6133 76.834 50.0898C76.834 49.5625 76.4629 49.2988 75.7207 49.2988H74.1797ZM74.1797 48.2793H75.3516C76.1602 48.2793 76.5645 48.041 76.5645 47.5645C76.5645 47.0645 76.1816 46.8066 75.416 46.791H74.1797V48.2793ZM82.2832 52.1172C81.3809 52.1172 80.6484 51.834 80.0859 51.2676C79.5273 50.6973 79.248 49.9395 79.248 48.9941V48.8184C79.248 48.1855 79.3691 47.6211 79.6113 47.125C79.8574 46.625 80.2012 46.2363 80.6426 45.959C81.084 45.6816 81.5762 45.543 82.1191 45.543C82.9824 45.543 83.6484 45.8184 84.1172 46.3691C84.5898 46.9199 84.8262 47.6992 84.8262 48.707V49.2812H80.6836C80.7266 49.8047 80.9004 50.2188 81.2051 50.5234C81.5137 50.8281 81.9004 50.9805 82.3652 50.9805C83.0176 50.9805 83.5488 50.7168 83.959 50.1895L84.7266 50.9219C84.4727 51.3008 84.1328 51.5957 83.707 51.8066C83.2852 52.0137 82.8105 52.1172 82.2832 52.1172ZM82.1133 46.6855C81.7227 46.6855 81.4062 46.8223 81.1641 47.0957C80.9258 47.3691 80.7734 47.75 80.707 48.2383H83.4199V48.1328C83.3887 47.6562 83.2617 47.2969 83.0391 47.0547C82.8164 46.8086 82.5078 46.6855 82.1133 46.6855ZM91.3242 45.6602V52H89.9004V46.8086H88.1074L87.9902 49.0176C87.916 50.0801 87.7109 50.8438 87.375 51.3086C87.043 51.7695 86.5332 52 85.8457 52H85.4062L85.4004 50.8164L85.6934 50.7871C86.0059 50.7441 86.2324 50.5547 86.373 50.2188C86.5176 49.8789 86.6094 49.2617 86.6484 48.3672L86.7656 45.6602H91.3242ZM92.5723 48.7715C92.5723 48.1504 92.6953 47.5918 92.9414 47.0957C93.1875 46.5957 93.5332 46.2129 93.9785 45.9473C94.4238 45.6777 94.9355 45.543 95.5137 45.543C96.3691 45.543 97.0625 45.8184 97.5938 46.3691C98.1289 46.9199 98.418 47.6504 98.4609 48.5605L98.4668 48.8945C98.4668 49.5195 98.3457 50.0781 98.1035 50.5703C97.8652 51.0625 97.5215 51.4434 97.0723 51.7129C96.627 51.9824 96.1113 52.1172 95.5254 52.1172C94.6309 52.1172 93.9141 51.8203 93.375 51.2266C92.8398 50.6289 92.5723 49.834 92.5723 48.8418V48.7715ZM93.9961 48.8945C93.9961 49.5469 94.1309 50.0586 94.4004 50.4297C94.6699 50.7969 95.0449 50.9805 95.5254 50.9805C96.0059 50.9805 96.3789 50.793 96.6445 50.418C96.9141 50.043 97.0488 49.4941 97.0488 48.7715C97.0488 48.1309 96.9102 47.623 96.6328 47.248C96.3594 46.873 95.9863 46.6855 95.5137 46.6855C95.0488 46.6855 94.6797 46.8711 94.4062 47.2422C94.1328 47.6094 93.9961 48.1602 93.9961 48.8945ZM105.047 52H103.623V46.8086H101.15V52H99.7266V45.6602H105.047V52ZM110.326 50.248L112.201 45.6602H113.982V52H112.559V47.8047L110.812 52H109.846L108.094 47.7812V52H106.67V45.6602H108.463L110.326 50.248ZM118.377 52.1172C117.475 52.1172 116.742 51.834 116.18 51.2676C115.621 50.6973 115.342 49.9395 115.342 48.9941V48.8184C115.342 48.1855 115.463 47.6211 115.705 47.125C115.951 46.625 116.295 46.2363 116.736 45.959C117.178 45.6816 117.67 45.543 118.213 45.543C119.076 45.543 119.742 45.8184 120.211 46.3691C120.684 46.9199 120.92 47.6992 120.92 48.707V49.2812H116.777C116.82 49.8047 116.994 50.2188 117.299 50.5234C117.607 50.8281 117.994 50.9805 118.459 50.9805C119.111 50.9805 119.643 50.7168 120.053 50.1895L120.82 50.9219C120.566 51.3008 120.227 51.5957 119.801 51.8066C119.379 52.0137 118.904 52.1172 118.377 52.1172ZM118.207 46.6855C117.816 46.6855 117.5 46.8223 117.258 47.0957C117.02 47.3691 116.867 47.75 116.801 48.2383H119.514V48.1328C119.482 47.6562 119.355 47.2969 119.133 47.0547C118.91 46.8086 118.602 46.6855 118.207 46.6855ZM127.4 52H125.977V49.4395H123.51V52H122.086V45.6602H123.51V48.3027H125.977V45.6602H127.4V52ZM133.91 46.791H131.854V52H130.43V46.791H128.396V45.6602H133.91V46.791Z" fill="white"/>
</svg>
